{
    "key": "group_5f1aaa6cc6c89",
    "title": "Block - Espacement",
    "fields": [
        {
            "key": "field_5f1aaa714d12f",
            "label": "Marge Desktop",
            "name": "desktop",
            "type": "text",
            "instructions": "Gérée en \"VH\" (équivalent à un % de la hauteur de fenêtre)",
            "required": 0,
            "conditional_logic": 0,
            "wrapper": {
                "width": "",
                "class": "",
                "id": ""
            },
            "default_value": "",
            "placeholder": "",
            "prepend": "",
            "append": "",
            "maxlength": ""
        },
        {
            "key": "field_5f1aaa8ccbe1c",
            "label": "Marge Mobile",
            "name": "mobile",
            "type": "text",
            "instructions": "Gérée en \"VH\" (équivalent à un % de la hauteur de fenêtre)",
            "required": 0,
            "conditional_logic": 0,
            "wrapper": {
                "width": "",
                "class": "",
                "id": ""
            },
            "default_value": "",
            "placeholder": "",
            "prepend": "",
            "append": "",
            "maxlength": ""
        }
    ],
    "location": [
        [
            {
                "param": "block",
                "operator": "==",
                "value": "acf\/spacing"
            }
        ]
    ],
    "menu_order": 0,
    "position": "normal",
    "style": "default",
    "label_placement": "top",
    "instruction_placement": "label",
    "hide_on_screen": "",
    "active": true,
    "description": "",
    "modified": 1630933952
}